Module Code,Level,Points,Title,Ass 1,Ass 2,Exam
C1001,1,20,Computing Mathematics,50%,-,50%
C1002,1,20,Systems Architecture,50%,-,50%
C1003,1,20,Problems Solving,50%,-,50%
C1004,1,20,Software Modelling 1,50%,-,50%
C1005,1,20,Software Implementation 1,50%,50%,-
C1006,1,20,Distributed Systems,50%,50%,
C2001,2,20,Software Modelling 2,50%,50%,
C2002,2,20,Software Implementation 2,40%,-,60%
C2003,2,20,Knowledge Processing,40%,-,60%
C2004,2,20,Formal Specification of Software Systems 1,40%,-,60%
C2005,2,20,Database Technology ,40%,-,60%
C2006,2,20,Group Project and Project Management,100%,-,-
C3001,3,20,Software Modelling 3,30%,-,70%
C3002,3,20,Software Implementation 3,30%,-,70%
C3003,3,20,Applications of Artificial Intelligence,30%,-,70%
C3004,3,20,Formal Specification of Software Systems 2,30%,-,70%
C3005,3,40,Dissertation ,20%,80%,-
