Room,Type,Cap
C1,Lecture Theatre,150
C2,Lecture Theatre,150
C3,Lecture Theatre,100
C4,Lecture Theatre,100
C5,Lecture Theatre,60
C6,Classroom Style,40
C7,Classroom Style,40
C8,Classroom Style,30
C9,Classroom Style,30
C10,Classroom Style,25
C11,Classroom Style,25
C12,Classroom Style,25
C13,Computer Lab,25
C14,Computer Lab,25
C15,Computer Lab,25
C16,Computer Lab,25
C17,Computer Lab,25
C18,Computer Lab,25
C19,Computer Lab,25
C20,Computer Lab,25
