Student ID,First Name,Surname,Level,C2013,C2002,C2003,C2004,C2005,C2006
20120100,Julie,Calvert ,2,2,1,4,3,2,1
20120102,Matthew,Whitworth,2,3,4,1,2,3,4
20120103,Lalita,Hunt,2,4,3,2,1,4,3
20120104,Michael,Su,2,3,4,1,2,3,4
20120111,Michael,Osborne,2,4,3,2,1,4,3
20120115,Peter,Gornall,2,2,1,4,3,2,1
20120118,Oliver,Halstead,2,4,3,2,1,4,3
20120121,Mandeep,Brazell,2,1,2,3,4,1,2
20120129,Kapil,Wells,2,3,4,1,2,3,4
20120135,Matthew,Beeby,2,1,2,3,4,1,2
20120139,Matthew,Stryjek,2,3,4,1,2,3,4
20120140,Laura,Clark,2,2,1,4,3,2,1
20120142,Michelle,Christie,2,2,1,4,3,2,1
20120153,Matthew,Ghunowa,2,2,1,4,3,2,1
20120154,Miles,Broughton,2,2,1,4,3,2,1
20120163,Michael,Behagg,2,1,2,3,4,1,2
20120167,Mark,Kamuzonde,2,4,3,2,1,4,3
20120168,Mark,Goss,2,2,1,4,3,2,1
20120171,Mario,Gregson,2,2,1,4,3,2,1
20120173,Laura,Early,2,2,1,4,3,2,1
20120174,Kirsty,Early,2,2,1,4,3,2,1
20120179,Julia,Chari,2,2,1,4,3,2,1
20120181,Julia,Brazell,2,1,2,3,4,1,2
20120183,John,Clark,2,2,1,4,3,2,1
20120186,Paul,Bari,2,1,2,3,4,1,2
20120188,John,Calvert ,2,2,1,4,3,2,1
20120193,Michael,Barrett,2,1,2,3,4,1,2
20120197,Laura,Woolston,2,3,4,1,2,3,4
20120206,Paul,Neal,2,4,3,2,1,4,3
20120209,Michael,Mathias,2,4,3,2,1,4,3
20120210,Michael,Redmond,2,3,4,1,2,3,4
20120215,Kapil,Wood,2,3,4,1,2,3,4
20120216,Michael,Bradley,2,1,2,3,4,1,2
20120221,Mario,Abdillah,2,1,2,3,4,1,2
20120223,Michael,Broughton,2,1,2,3,4,1,2
20120224,Melissa,Lee,2,4,3,2,1,4,3
20120227,Peter,Vinitchaikul,2,3,4,1,2,3,4
20120230,Lukman,Mcgregor,2,4,3,2,1,4,3
20120232,Matthew,Patel,2,3,4,1,2,3,4
20120236,Nassir,Begum,2,1,2,3,4,1,2
20120237,Micheal,Macdonald,2,4,3,2,1,4,3
20120244,Justin,Brown,2,2,1,4,3,2,1
20120249,Matthew,Norman,2,4,3,2,1,4,3
20120250,Michelle,Baban,2,1,2,3,4,1,2
20120254,Mohammad,Albert,2,1,2,3,4,1,2
20120267,Julie,Beeby,2,1,2,3,4,1,2
20120270,Kenny,Ahmed,2,1,2,3,4,1,2
20120271,Kieran,Abdillah,2,1,2,3,4,1,2
20120275,Laura,Wood,2,3,4,1,2,3,4
20120278,Lalita,Sonagara,2,3,4,1,2,3,4
20120285,Luke,Lloyd,2,4,3,2,1,4,3
20120287,Mathew,Barrios,2,1,2,3,4,1,2
20120292,Matthew,Patel,2,3,4,1,2,3,4
20120299,Michael,Horton,2,4,3,2,1,4,3
20120300,Michael,Lee,2,4,3,2,1,4,3
20120301,Michael,Vartanian,2,3,4,1,2,3,4
20120303,Michael,Ricci,2,3,4,1,2,3,4
20120306,Michael,Miller,2,4,3,2,1,4,3
20120310,Marie,Cox,2,2,1,4,3,2,1
20120312,Mark,Collis,2,2,1,4,3,2,1
20120316,Kai,Bradley,2,1,2,3,4,1,2
20120317,Justin,Barrett,2,1,2,3,4,1,2
20120321,Paul,James,2,4,3,2,1,4,3
20120323,Oliver,Muna,2,4,3,2,1,4,3
20120327,Kevin,Vokes,2,3,4,1,2,3,4
20120332,Kieran,Broughton,2,2,1,4,3,2,1
20120342,Peter,Bevins,2,1,2,3,4,1,2
20120347,Melissa,Walia,2,3,4,1,2,3,4
20120352,Mark,Wright,2,3,4,1,2,3,4
20120355,Mathew,Harwood,2,4,3,2,1,4,3
20120357,Michael,Porter,2,3,4,1,2,3,4
20120359,Kevin,Thomas,2,3,4,1,2,3,4
20120361,Luke,Miller,2,4,3,2,1,4,3
20120363,Mohammad,Horne,2,4,3,2,1,4,3
20120366,Paul,Knight,2,4,3,2,1,4,3
20120367,Marie,Shen,2,3,4,1,2,3,4
20120368,Mandeep,Barnes,2,1,2,3,4,1,2
20120369,Matthew,Chinner,2,2,1,4,3,2,1
20120370,Micheal,Chong,2,2,1,4,3,2,1
20120371,Miao miao,Zheng,2,3,4,1,2,3,4
20120380,Lukman,Zheng,2,3,4,1,2,3,4
20120381,Kenny,Christie,2,2,1,4,3,2,1
20120383,Kai,Baban,2,1,2,3,4,1,2
20120385,Nassir,Caudle,2,2,1,4,3,2,1
20120394,Kirsty,Halstead,2,4,3,2,1,4,3
